2021-08-06 →  10047 palavras
2021-08-10 →  10564 palavras
2021-08-11 →  11255 palavras
2021-08-12 →  11690 palavras
2021-08-13 →  12709 palavras
2021-08-17 →  13339 palavras
2021-08-18 →  13645 palavras
2021-08-23 →  14104 palavras
2021-08-27 →  14621 palavras
2021-09-14 →  14607 palavras
2021-09-15 →  15117 palavras
2021-09-24 →  15498 palavras
2021-09-25 →  15576 palavras
2021-10-04 →  15576 palavras
2022-01-16 →  15551 palavras
2022-01-17 →  15551 palavras
2022-02-01 →  16613 palavras
2022-02-04 →  16986 palavras
2022-02-16 →  16986 palavras
2022-03-07 →  17254 palavras
2022-03-28 →  18077 palavras
2022-03-30 →  18077 palavras
2022-04-20 →  20569 palavras
2022-04-21 →  21623 palavras
2022-04-22 →  22525 palavras
2022-04-23 →  23162 palavras
2022-04-24 →  24826 palavras
2022-04-25 →  27845 palavras
2022-04-26 →  29842 palavras
2022-04-27 →  29575 palavras
2022-04-28 →  29587 palavras
2022-04-29 →  30043 palavras
2022-04-30 →  30833 palavras
2022-05-01 →  33994 palavras
2022-05-02 →  35782 palavras
2022-05-03 →  36589 palavras
2022-05-04 →  37981 palavras
2022-05-05 →  39578 palavras
2022-05-06 →  40489 palavras
2022-05-07 →  42073 palavras
2022-05-08 →  43801 palavras
2022-05-09 →  45204 palavras
2022-05-10 →  46712 palavras
2022-05-11 →  47587 palavras
2022-05-12 →  49432 palavras
2022-05-13 →  50475 palavras
2022-05-14 →  52157 palavras
2022-05-15 →  54374 palavras
2022-05-16 →  57054 palavras
2022-05-17 →  57773 palavras
2022-05-18 →  57773 palavras
2022-05-19 →  57083 palavras
