date,words
2021-08-06,10047 
2021-08-10,10564 
2021-08-11,11255 
2021-08-12,11690 
2021-08-13,12709 
2021-08-17,13339 
2021-08-18,13645 
2021-08-23,14104
2021-08-27,14621
2021-09-14,14607
2021-09-15,15117
2021-09-24,15498
2021-09-25,15576
2021-10-04,15576
2022-01-16,15551
2022-01-17,15551
2022-02-01,16613
2022-02-04,16986
2022-02-16,16986
2022-03-07,17254
2022-03-28,18077
2022-03-30,18077
2022-04-20,20569
2022-04-21,21623
2022-04-22,22525
2022-04-23,23162
2022-04-24,24826
2022-04-25,27845
2022-04-26,29842
2022-04-27,29575
2022-04-28,29587
2022-04-29,30043
2022-04-30,30833
2022-05-01,33994
2022-05-02,35782
2022-05-03,36589
2022-05-04,37981
2022-05-05,39578
2022-05-06,40489
2022-05-07,42073
2022-05-08,43801
2022-05-09,45204
2022-05-10,46712
2022-05-11,47587
2022-05-12,49432
2022-05-13,50475
2022-05-14,52157
2022-05-15,54374
2022-05-16,57054
2022-05-18,57773
2022-05-19,57083
